…
tidy_books %>%
  count(word,sort = TRUE)
```

```
## # A tibble: 13,914 × 2
##    word       n
##    <chr>  <int>
##  1 miss    1855
##  2 time    1337
##  3 fanny    862
##  4 dear     822
##  5 lady     817
##  6 sir      806
##  7 day      797
##  8 emma     787
##  9 sister   727
## 10 house    699
## # ℹ 13,904 more rows
```
…
```
## Using mirror http://aleph.gutenberg.org
```

```r
tidy_hgwells <- hgwells %>%
  tidytext::unnest_tokens(word,text) %>%
  anti_join(stop_words, by = "word")

tidy_hgwells %>% count(word,sort = TRUE)
```

```
## # A tibble: 11,811 × 2
##    word       n
##    <chr>  <int>
##  1 time     461
##  2 people   302
##  3 door     260
##  4 heard    249
##  5 black    232
##  6 stood    229
##  7 white    224
##  8 hand     218
##  9 kemp     213
## 10 eyes     210
## # ℹ 11,801 more rows
```
…
```r
bronte <- gutenbergr::gutenberg_download(c(1260,768,969,9182,767))

tidy_bronte <- bronte %>%
  tidytext::unnest_tokens(word, text) %>%
  anti_join(stop_words, by = "word")

tidy_bronte %>% 
  count(word, sort = TRUE)
```

```
## # A tibble: 23,213 × 2
##    word       n
##    <chr>  <int>
##  1 time    1065
##  2 miss     854
##  3 day      825
##  4 don’t    780
##  5 hand     767
##  6 eyes     714
##  7 night    648
##  8 heart    638
##  9 looked   601
## 10 door     591
## # ℹ 23,203 more rows
```
…
